{
  "type": "object",
  "allOf": [
    { "$ref": "../../../../../../spec/fixtures/api/schemas/entities/merge_request_widget.json" },
    {
      "properties": {
        "has_approvals_available": { "type": ["boolean"] },
        "approvals_before_merge": { "type": ["integer", "null"] },
        "approved": { "type": "boolean" },
        "approvals_path": { "type": ["string", "null"] },
        "api_approvals_path": { "type": ["string", "null"] },
        "api_approval_settings_path": { "type": ["string", "null"] },
        "api_approve_path": { "type": ["string", "null"] },
        "api_unapprove_path": { "type": ["string", "null"] },
        "codeclimate": {
          "head_path": { "type": "string" },
          "base_path": { "type": "string" }
        },
        "blob_path": {
          "head_path": { "type": "string" },
          "base_path": { "type": "string" }
        },
        "vulnerability_feedback_path": { "type": "string" },
        "can_create_feedback": { "type": "boolean" }
      }
    }
  ]
}
